<svg width="125" height="36" viewBox="0 0 125 36" fill="none" xmlns="http://www.w3.org/2000/svg">
<path d="M68.1016 10.8672V21.9531C68.1016 23.2188 67.8164 24.3281 67.2461 25.2812C66.6836 26.2344 65.8672 26.9648 64.7969 27.4727C63.7266 27.9805 62.4609 28.2344 61 28.2344C58.7969 28.2344 57.0859 27.6719 55.8672 26.5469C54.6484 25.4141 54.0391 23.8672 54.0391 21.9062V10.8672H57.6602V21.3555C57.6602 22.6758 57.9258 23.6445 58.457 24.2617C58.9883 24.8789 59.8672 25.1875 61.0938 25.1875C62.2812 25.1875 63.1406 24.8789 63.6719 24.2617C64.2109 23.6367 64.4805 22.6602 64.4805 21.332V10.8672H68.1016ZM82.4102 23.2422C82.4102 24.7891 81.8516 26.0078 80.7344 26.8984C79.625 27.7891 78.0781 28.2344 76.0938 28.2344C74.2656 28.2344 72.6484 27.8906 71.2422 27.2031V23.8281C72.3984 24.3438 73.375 24.707 74.1719 24.918C74.9766 25.1289 75.7109 25.2344 76.375 25.2344C77.1719 25.2344 77.7812 25.082 78.2031 24.7773C78.6328 24.4727 78.8477 24.0195 78.8477 23.418C78.8477 23.082 78.7539 22.7852 78.5664 22.5273C78.3789 22.2617 78.1016 22.0078 77.7344 21.7656C77.375 21.5234 76.6367 21.1367 75.5195 20.6055C74.4727 20.1133 73.6875 19.6406 73.1641 19.1875C72.6406 18.7344 72.2227 18.207 71.9102 17.6055C71.5977 17.0039 71.4414 16.3008 71.4414 15.4961C71.4414 13.9805 71.9531 12.7891 72.9766 11.9219C74.0078 11.0547 75.4297 10.6211 77.2422 10.6211C78.1328 10.6211 78.9805 10.7266 79.7852 10.9375C80.5977 11.1484 81.4453 11.4453 82.3281 11.8281L81.1562 14.6523C80.2422 14.2773 79.4844 14.0156 78.8828 13.8672C78.2891 13.7188 77.7031 13.6445 77.125 13.6445C76.4375 13.6445 75.9102 13.8047 75.543 14.125C75.1758 14.4453 74.9922 14.8633 74.9922 15.3789C74.9922 15.6992 75.0664 15.9805 75.2148 16.2227C75.3633 16.457 75.5977 16.6875 75.918 16.9141C76.2461 17.1328 77.0156 17.5312 78.2266 18.1094C79.8281 18.875 80.9258 19.6445 81.5195 20.418C82.1133 21.1836 82.4102 22.125 82.4102 23.2422ZM95.3828 28H85.5156V10.8672H95.3828V13.8438H89.1484V17.6055H94.9492V20.582H89.1484V25H95.3828V28ZM102.602 18.4727H103.773C104.922 18.4727 105.77 18.2812 106.316 17.8984C106.863 17.5156 107.137 16.9141 107.137 16.0938C107.137 15.2812 106.855 14.7031 106.293 14.3594C105.738 14.0156 104.875 13.8438 103.703 13.8438H102.602V18.4727ZM102.602 21.4258V28H98.9688V10.8672H103.961C106.289 10.8672 108.012 11.293 109.129 12.1445C110.246 12.9883 110.805 14.2734 110.805 16C110.805 17.0078 110.527 17.9062 109.973 18.6953C109.418 19.4766 108.633 20.0898 107.617 20.5352C110.195 24.3867 111.875 26.875 112.656 28H108.625L104.535 21.4258H102.602ZM124.926 23.2422C124.926 24.7891 124.367 26.0078 123.25 26.8984C122.141 27.7891 120.594 28.2344 118.609 28.2344C116.781 28.2344 115.164 27.8906 113.758 27.2031V23.8281C114.914 24.3438 115.891 24.707 116.688 24.918C117.492 25.1289 118.227 25.2344 118.891 25.2344C119.688 25.2344 120.297 25.082 120.719 24.7773C121.148 24.4727 121.363 24.0195 121.363 23.418C121.363 23.082 121.27 22.7852 121.082 22.5273C120.895 22.2617 120.617 22.0078 120.25 21.7656C119.891 21.5234 119.152 21.1367 118.035 20.6055C116.988 20.1133 116.203 19.6406 115.68 19.1875C115.156 18.7344 114.738 18.207 114.426 17.6055C114.113 17.0039 113.957 16.3008 113.957 15.4961C113.957 13.9805 114.469 12.7891 115.492 11.9219C116.523 11.0547 117.945 10.6211 119.758 10.6211C120.648 10.6211 121.496 10.7266 122.301 10.9375C123.113 11.1484 123.961 11.4453 124.844 11.8281L123.672 14.6523C122.758 14.2773 122 14.0156 121.398 13.8672C120.805 13.7188 120.219 13.6445 119.641 13.6445C118.953 13.6445 118.426 13.8047 118.059 14.125C117.691 14.4453 117.508 14.8633 117.508 15.3789C117.508 15.6992 117.582 15.9805 117.73 16.2227C117.879 16.457 118.113 16.6875 118.434 16.9141C118.762 17.1328 119.531 17.5312 120.742 18.1094C122.344 18.875 123.441 19.6445 124.035 20.418C124.629 21.1836 124.926 22.125 124.926 23.2422Z" fill="#969697"/>
<path d="M15.75 18C17.53 18 19.2701 17.4722 20.7501 16.4832C22.2302 15.4943 23.3837 14.0887 24.0649 12.4442C24.7461 10.7996 24.9243 8.99002 24.5771 7.24419C24.2298 5.49836 23.3726 3.89472 22.114 2.63604C20.8553 1.37737 19.2516 0.520203 17.5058 0.172937C15.76 -0.17433 13.9504 0.00389957 12.3058 0.685088C10.6613 1.36628 9.25571 2.51983 8.26677 3.99987C7.27784 5.47991 6.75 7.21997 6.75 9C6.75 11.387 7.69821 13.6761 9.38604 15.364C11.0739 17.0518 13.3631 18 15.75 18ZM22.05 20.25H20.876C19.2688 20.9912 17.5199 21.3751 15.75 21.3751C13.9801 21.3751 12.2312 20.9912 10.624 20.25H9.45C6.94387 20.2505 4.54053 21.2463 2.76843 23.0184C0.996323 24.7905 0.00053023 27.1939 0 29.7L0 32.625C0.000265075 33.52 0.35593 34.3783 0.988807 35.0112C1.62169 35.6441 2.47998 35.9997 3.375 36H22.7C22.5264 35.5203 22.4639 35.0074 22.517 34.5L23 30.22L23.084 29.44L23.639 28.885L29.074 23.45C28.1983 22.4476 27.1187 21.6436 25.9075 21.0917C24.6962 20.5399 23.3811 20.2529 22.05 20.25ZM25.235 30.466L24.757 34.755C24.7382 34.922 24.7573 35.0911 24.8128 35.2497C24.8684 35.4083 24.9589 35.5524 25.0777 35.6713C25.1966 35.7901 25.3407 35.8806 25.4993 35.9362C25.6579 35.9917 25.827 36.0108 25.994 35.992L30.276 35.514L39.976 25.814L34.935 20.773L25.235 30.462V30.466ZM44.508 18.907L41.843 16.242C41.5272 15.9278 41.0999 15.7514 40.6545 15.7514C40.2091 15.7514 39.7818 15.9278 39.466 16.242L36.809 18.9L36.521 19.188L41.569 24.229L44.508 21.29C44.8224 20.9729 44.9988 20.5445 44.9988 20.098C44.9988 19.6515 44.8224 19.2231 44.508 18.906V18.907Z" fill="black"/>
</svg>
